{
  "$schema": "../../node_modules/@angular-devkit/schematics/collection-schema.json",
  "name": "dacs-fe-schematics-collection",
  "version": "0.0.1",
  "extends": ["@nrwl/schematics"],
  "schematics": {
    "my-schematic-name": {
      "factory": "../../dist/out-tsc/tools/schematics/create-libs",
      "schema": "./create-libs/schema.json",
      "description": "Do awesome stuff"
    }
  }
}
